XR4ALL_Survey_1
…
## Q9 What is the number one thing you want us to consider while developing this plugin?

## # A tibble: 29 x 2
##       id Q08WhatElse                                                            
##    <dbl> <chr>                                                                  
##  1     1 No subscription, but one time license.                                 
##  2     2 User friendly integration of physiological recording hardware and Unity
##  3     6 Easy API for implementation and robust                                 
##  4     7 We use unreal. Not unity. Too bad. Still wanted to give you all the fe
##  5     9 "Practical application to VR. VR is clumsy as it is already. \r\n"     
##  6    12 "No additional hardware and consistency over accuracy.\r\n\r\nBallisto
##  7    17 "Data synchronization according to vr refresh rate\r\n"                
##  8    21 Easy to handle, data can be processed with R or other programs, reliab
##  9    27 "Measuring fatigue\r\nValidating motivation during testing"            
## 10    28 time precision                                                         
## #  with 19 more rows
…
